{"version": 2, "width": 115, "height": 60, "timestamp": 1551172054, "env": {"SHELL": "/usr/bin/zsh", "TERM": "xterm-256color"}}
[0.096447, "o", "\u001b[1m\u001b[7m%\u001b[27m\u001b[1m\u001b[0m                                                                                                                  \r \r"]
[0.120742, "o", "\u001b]2;hama@hama-nbl-rad: ~/Projekte/Presentationen/PowerUpBash\u0007\u001b]1;..n/PowerUpBash\u0007"]
[0.212422, "o", "\r\u001b[0m\u001b[27m\u001b[24m\u001b[J\r\n\u001b[1m\u001b[0m\u001b[1m\u001b[36mPowerUpBash\u001b[0m\u001b[36m\u001b[39m\u001b[1m \u001b[0m\u001b[1mon \u001b[0m\u001b[1m\u001b[37m\u001b[1m\u001b[37m\u001b[0m\u001b[37m\u001b[1m\u001b[37m\u001b[35m master\u001b[0m\u001b[35m\u001b[39m\u001b[1m\u001b[0m\u001b[1m\u001b[0m\u001b[1m\u001b[31m [!?]\u001b[0m\u001b[31m\u001b[39m\u001b[1m\u001b[0m\u001b[0m\u001b[39m\u001b[1m \u001b[0m\r\n\u001b[1m\u001b[0m\u001b[1m\u001b[32m➜ \u001b[0m\u001b[32m\u001b[39m\u001b[1m\u001b[0m\u001b[K"]
[0.212473, "o", "\u001b[?1h\u001b=\u001b[?2004h"]
[4.758297, "o", "n\u001b[90mpm install -g svg-term-cli\u001b[39m\u001b[26D"]
[4.783265, "o", "\bn\u001b[39ma\u001b[90mn\u001b[90mo\u001b[90m \u001b[90m~\u001b[90m/\u001b[90m.\u001b[90mz\u001b[90ms\u001b[90mh\u001b[90mr\u001b[90mc\u001b[39m\u001b[39m \u001b[39m \u001b[39m \u001b[39m \u001b[39m \u001b[39m \u001b[39m \u001b[39m \u001b[39m \u001b[39m \u001b[39m \u001b[39m \u001b[39m \u001b[39m \u001b[25D"]
[4.980575, "o", "\u001b[39mn"]
[5.948756, "o", "\b\u001b[90mn\b"]
[6.108427, "o", "\b\b\u001b[39mn\u001b[90mp\u001b[90mm\u001b[90m \u001b[90mi\u001b[90mn\u001b[90ms\u001b[90mt\u001b[90ma\u001b[90ml\u001b[90ml\u001b[90m \u001b[90m-\u001b[90mg svg-term-cli\u001b[39m\u001b[26D"]
[6.217789, "o", "\b \u001b[39m \u001b[39m \u001b[39m \u001b[39m \u001b[39m \u001b[39m \u001b[39m \u001b[39m \u001b[39m \u001b[39m \u001b[39m \u001b[39m \u001b[39m \u001b[39m \u001b[39m \u001b[39m \u001b[39m \u001b[39m \u001b[39m \u001b[39m \u001b[39m \u001b[39m \u001b[39m \u001b[39m \u001b[39m \u001b[39m \u001b[27D"]
[6.646595, "o", "l\u001b[90ms\u001b[39m\b"]
[6.805639, "o", "\bl\u001b[39ms"]
[6.960122, "o", "\u001b[?1l\u001b>"]
[6.960416, "o", "\u001b[?2004l\r\r\n"]
[6.962015, "o", "\u001b]2;ls --color\u0007"]
[6.9623, "o", "\u001b]1;ls\u0007"]
[6.972634, "o", "cast.json  PITCHME.md  PITCHME.yaml  README.md  \u001b[0m\u001b[01;34mtemplate\u001b[0m\r\n"]
[6.973715, "o", "\u001b[1m\u001b[7m%\u001b[27m\u001b[1m\u001b[0m                                                                                                                  \r \r"]
[6.974128, "o", "\u001b]2;hama@hama-nbl-rad: ~/Projekte/Presentationen/PowerUpBash\u0007"]
[6.974438, "o", "\u001b]1;..n/PowerUpBash\u0007"]
[7.110877, "o", "\r\u001b[0m\u001b[27m\u001b[24m\u001b[J\r\n\u001b[1m\u001b[0m\u001b[1m\u001b[36mPowerUpBash\u001b[0m\u001b[36m\u001b[39m\u001b[1m \u001b[0m\u001b[1mon \u001b[0m\u001b[1m\u001b[37m\u001b[1m\u001b[37m\u001b[0m\u001b[37m\u001b[1m\u001b[37m\u001b[35m master\u001b[0m\u001b[35m\u001b[39m\u001b[1m\u001b[0m\u001b[1m\u001b[0m\u001b[1m\u001b[31m [!?]\u001b[0m\u001b[31m\u001b[39m\u001b[1m\u001b[0m\u001b[0m\u001b[39m\u001b[1m \u001b[0m\r\n\u001b[1m\u001b[0m\u001b[1m\u001b[32m➜ \u001b[0m\u001b[32m\u001b[39m\u001b[1m\u001b[0m\u001b[K\u001b[?1h\u001b="]
[7.110923, "o", "\u001b[?2004h"]
[8.673887, "o", "z\u001b[90m beEnergized\u001b[39m\u001b[12D"]
[9.165321, "o", "\bz\u001b[39m "]
[10.582784, "o", "\u001b[39mb\u001b[39me\u001b[39mE\u001b[39mn\u001b[39me\u001b[39mr\u001b[39mg\u001b[39mi\u001b[39mz\u001b[39me\u001b[39md"]
[11.190028, "o", "\u001b[?1l\u001b>\u001b[?2004l\r\r\n"]
[11.191645, "o", "\u001b]2;_z beEnergized 2>&1\u0007\u001b]1;z\u0007"]
[11.204911, "o", "\u001b[1m\u001b[7m%\u001b[27m\u001b[1m\u001b[0m                                                                                                                  \r \r"]
[11.206809, "o", "\u001b]2;hama@hama-nbl-rad: ~/Projekte/beEnergizedBackend\u0007"]
[11.2077, "o", "\u001b]1;..rgizedBackend\u0007"]
[11.353829, "o", "\r\u001b[0m\u001b[27m\u001b[24m\u001b[J\r\n\u001b[1m\u001b[0m\u001b[1m\u001b[36mbeEnergizedBackend\u001b[0m\u001b[36m\u001b[39m\u001b[1m \u001b[0m\u001b[1mon \u001b[0m\u001b[1m\u001b[37m\u001b[1m\u001b[37m\u001b[0m\u001b[37m\u001b[1m\u001b[37m\u001b[35m new/language-for-mandant-invoice-local-SD-233\u001b[0m\u001b[35m\u001b[39m\u001b[1m\u001b[0m\u001b[1m\u001b[0m\u001b[1m\u001b[31m [$?]\u001b[0m\u001b[31m\u001b[39m\u001b[1m\u001b[0m\u001b[0m\u001b[39m\u001b[1m \u001b[0m\u001b[1mvia \u001b[0m\u001b[1m\u001b[34m🐘 v7.2.15\u001b[0m\u001b[34m\u001b[39m\u001b[1m \u001b[0m\r\n\u001b[1m\u001b[0m\u001b[1m\u001b[32m➜ \u001b[0m\u001b[32m\u001b[39m\u001b[1m\u001b[0m\u001b[K"]
[11.354172, "o", "\u001b[?1h\u001b=\u001b[?2004h"]
[14.724135, "o", "z\u001b[90m beEnergized\u001b[39m\u001b[12D"]
[14.970614, "o", "\bz\u001b[39m "]
[16.254267, "o", "\u001b[39mP\u001b[39m \u001b[39m \u001b[39m \u001b[39m \u001b[39m \u001b[39m \u001b[39m \u001b[39m \u001b[39m \u001b[39m \u001b[10D"]
[16.614167, "o", "o"]
[16.951746, "o", "w"]
[17.114288, "o", "e"]
[17.269831, "o", "r"]
[17.964445, "o", "U"]
[18.572085, "o", "b"]
[19.538904, "o", "\b \b"]
[20.013638, "o", "p"]
[20.663518, "o", "\u001b[?1l\u001b>"]
[20.663865, "o", "\u001b[?2004l\r\r\n"]
[20.664167, "o", "\u001b]2;_z PowerUp 2>&1\u0007\u001b]1;z\u0007"]
[20.684498, "o", "\u001b[1m\u001b[7m%\u001b[27m\u001b[1m\u001b[0m                                                                                                                  \r \r"]
[20.685172, "o", "\u001b]2;hama@hama-nbl-rad: ~/Projekte/Presentationen/PowerUpBash\u0007"]
[20.685725, "o", "\u001b]1;..n/PowerUpBash\u0007"]
[20.804383, "o", "\r\u001b[0m\u001b[27m\u001b[24m\u001b[J\r\n\u001b[1m\u001b[0m\u001b[1m\u001b[36mPowerUpBash\u001b[0m\u001b[36m\u001b[39m\u001b[1m \u001b[0m\u001b[1mon \u001b[0m\u001b[1m\u001b[37m\u001b[1m\u001b[37m\u001b[0m\u001b[37m\u001b[1m\u001b[37m\u001b[35m master\u001b[0m\u001b[35m\u001b[39m\u001b[1m\u001b[0m\u001b[1m\u001b[0m\u001b[1m\u001b[31m [!?]\u001b[0m\u001b[31m\u001b[39m\u001b[1m\u001b[0m\u001b[0m\u001b[39m\u001b[1m \u001b[0m\r\n\u001b[1m\u001b[0m\u001b[1m\u001b[32m➜ \u001b[0m\u001b[32m\u001b[39m\u001b[1m\u001b[0m\u001b[K"]
[20.804723, "o", "\u001b[?1h\u001b=\u001b[?2004h"]
[24.127504, "o", "\u001b[?2004l\r\r\n"]
